…
```r
noNaSteps <- data %>% group_by(interval) %>% mutate(noNaSteps=ifelse(is.na(steps),mean(steps,na.rm = TRUE),steps))
```

3. Create a new dataset that is equal to the original dataset but with the missing data filled in.


```r
activityData <- noNaSteps[2:4]
activityData
```

```
## # A tibble: 17,568 x 3
## # Groups:   interval [288]
##    date       interval noNaSteps
##    <fct>         <int>     <dbl>
##  1 2012-10-01        0    1.72  
##  2 2012-10-01        5    0.340 
##  3 2012-10-01       10    0.132 
##  4 2012-10-01       15    0.151 
##  5 2012-10-01       20    0.0755
##  6 2012-10-01       25    2.09  
##  7 2012-10-01       30    0.528 
##  8 2012-10-01       35    0.868 
##  9 2012-10-01       40    0     
## 10 2012-10-01       45    1.47  
## # … with 17,558 more rows
```
…
